Label_157
Label_158
Label_159
Label_160
Label_161
Label_162
Label_163
Label_164
Label_165
Label_166
Label_167
Label_168
Label_169
Label_170
Label_171
Label_172
Label_174
Label_175
Label_176
Label_177
Label_178
Label_179
Label_180
Label_181
Label_182
Label_183
Label_184
Label_187
Label_188
Label_189
Label_193
Label_195
Label_197
Label_199
Label_200
Label_202
Label_204
Label_2049187130208731521
Label_205
Label_206
Label_207
Label_208
Label_209
Label_210
Label_211
Label_212
Label_213
Label_214
Label_215
Label_216
Label_217
Label_218
Label_219
Label_220
Label_221
Label_222
Label_223
Label_224
Label_225
Label_232
Label_237
Label_238
Label_240
Label_241
Label_243
Label_244
Label_245
Label_246
Label_247
Label_248
Label_251
Label_252
Label_253
Label_254
Label_258
Label_259
Label_261
Label_262
Label_263
Label_264
Label_265
Label_266
Label_267
Label_268
Label_269
Label_270
Label_271
Label_272
Label_273
Label_274
Label_275
Label_276
Label_277
Label_278
Label_279
Label_280
Label_281
Label_282
Label_283
